Purpose	Organization	Contact	Latitude	Longitude	Post	Give
Response	โรงพยาบาลสันป่าตอง	nan	18.595055	98.8864	Face Shield 1,400 ชิ้น #ถึงมือคุณหมอแล้วค่าาตอนนี้ได้ทำการส่งมอบไปยัง 6 ร.พ.เป็นที่เรียบร้อยแล้วค่ะได้แก่ รพ.สวนดอก รพ.นครพิงค์ รพ.สันกำแพง รพ.สันป่าตอง รพ.พะเยา และ รพ.แม่สอดค่ะ	face shield N/A
Response	โรงพยาบาลสมุทรปราการ	อาคาร9 ชั้น5. เลขที่71 ถ.จักกะพาก ต.ปากน้ำ อ.เมือง จ.สมุทรปราการ 10270	13.583642000000001	100.597385	face shield พว. อัญชลี เหลือสินรพ.สมุทรปราการ อาคาร9 ชั้น5. เลขที่71 ถ.จักกะพาก ต.ปากน้ำ อ.เมือง จ.สมุทรปราการ 10270🙏🙏🙏🙏	face shield N/A
Response	ศศิกมล พุ่มนางแย้ม	@Chidchanok Chidchanok Puuka Chankupatarat	0	0	ขอส่งข่าวต่อค่ะแจกหน้ากากป้องกันเชื้อไวรัส (Face shield) ตอนนี้มีอยู่ 2,000 ชุดไม่ได้สั่งจากโรงงานไหน ฝีมือน้องๆอาสาสมัคร ใช้มือผลิตได้คนละร้อยชิ้นต่อวัน น้องๆทำด้วยหัวใจ จึงอยากให้ถึงมือผู้ที่ต้องการอย่างคุ้มค่าที่สุดจึงขอให้รพ.ที่ต้องการช่วยสละเวลาเล็กน้อยกรอกข้อมูลลงในนี้ 👩‍🔬👨‍🔬https://forms.gle/gL4dsMN95QCrZcwZ7ถ้าขาดอะไรอีกเขียนมาในนี้ได้เลย หรือติดต่อ น้องนุ่น ศศิกมล พุ่มนางแย้ม หรือ น้องปู @Chidchanok Chidchanok Puuka Chankupataratขอร่วมส่งแรงใจไปกองหน้า กองหลังขอช่วยเท่าที่ช่วยได้ไม่ขอรับบริจาคสมทบนะครับท่านใดมีจิตศรัทธาจะช่วยเหลือในเรื่องใดไปที่ใด จะมากหรือน้อยผมขอร่วมอนุโมทนาบุญด้วยครับ 👏👏	face shield 2000
Response	วิศวกรรมชีวการแพทย์ มหาวิทยาลัยรังสิต อ.อนันตศักดิ์	0872879202​	0	0	เร่งผลิต Low Cost PPE สำหรับบุคลากรทางการแพทย์#เพื่อมอบให้โรงพยาบาลต่างๆทั่วประเทศ COVID -19ประยุกต์จากหน้ากากดำน้ำเพื่อผลิตเป็น Mass Productขอความอนุเคราะห์ดังนี้ครับ1. หน้ากากดำน้ำตื้น Decathlon รุ่น Easybreath model 22. หน่วยงาน ที่รับทำMold ข้อต่อ3.เสื้อกันฝนพลาสติกที่รูดซิบได้4. รองเท้าบูธ ยางฝากแชร์ด้วยนะครับ ♥️Contact Bme Rsu Walaiporn Nakapanวิศวกรรมชีวการแพทย์ มหาวิทยาลัยรังสิตอ.อนันตศักดิ์​ 0872879202​ รองคณบดีฯ​ ว.BMEมนตรี ตะบะขจร 099-1643697.จนท.ว.BMEพิไลลักษณ์วริน อินทรรังสี 081-6000127.จนท.อาสา.ว.BME.	low cost ppe N/A
Response	สมาคมส่งเสริมการรับช่วงการผลิตไทย (ไทยซับคอน)	โทร : 02-713-6540-1 Line official:@thaisubcon อีเมล์ : info.thaisubcon@gmail.com TURTO THAI SUBCONTRACTING PROMOTION ASSOCIATION	0	0	"Thai Subcon CSR For Covid-19โรงพยาบาลใดต้องการขอรับบริจาค""แอลกอฮอล์ 95%"" หรือ ""แอลกอฮอล์ 70%""สามารถติดต่อขอรับบริจาคได้ที่สมาคมส่งเสริมการรับช่วงการผลิตไทย (ไทยซับคอน)หรือลงทะเบียน เพื่อติดต่อขอรับบริจาคได้ที Qr Codeด้านล่างสแกน Qr codeลงทะเบียนขอรับบริจาคติดต่อมาไถ้ที่ : สมาคมไทยซับคอนโทร : 02-713-6540-1สมาคมส่งเสริมการรับช่วงการผลิตไทยอีเมล์ : info.thaisubcon@gmail.comTURTOTHAI SUBCONTRACTING PROMOTION ASSOCIATIONLine official:@thaisubcon"	แอลกอฮอล์ 95% N/A, แอลกอฮอล์ 70% N/A
